MWPALEO-Data analysis
…
Summarising example (1)

longMites %>% # this is the object we made a bit earlier
  summarise(meanCount = mean(counts)) # mean count across all plots and all species

##   meanCount
## 1         4

Summarising example (2)

longMites %>% # this is the object we made a bit earlier
  group_by(species) %>% # adding this line means we'll get a summary by each species
  summarise(meanCount = mean(counts)) # mean count for each species

## # A tibble: 35 x 2
##    species  meanCount
##    <chr>        <dbl>
##  1 Brachy       8.73 
##  2 Ceratoz1     1.29 
##  3 Ceratoz3     1.30 
##  4 Eupelops     0.643
##  5 FSET         1.86 
##  6 Galumna1     0.957
##  7 HMIN         4.91 
##  8 HMIN2        1.96 
##  9 HPAV         8.51 
## 10 HRUF         0.229
## # ... with 25 more rows

Summarising example (3)

longMites %>% # this is the object we made a bit earlier
  filter(plot < 6) %>% # take only plots 1 through 5
  group_by(species) %>% # adding this line means we'll get a summary by each species
  summarise(meanCount = mean(counts)) # mean count for each species

## # A tibble: 35 x 2
##    species  meanCount
##    <chr>        <dbl>
##  1 Brachy      10.2  
##  2 Ceratoz1     0.400
##  3 Ceratoz3     0.   
##  4 Eupelops     0.   
##  5 FSET         6.80 
##  6 Galumna1     3.00 
##  7 HMIN         1.20 
##  8 HMIN2        7.00 
##  9 HPAV         9.00 
## 10 HRUF         0.400
## # ... with 25 more rows
…
